{
    "annotations": {
      "list": [
        {
          "builtIn": 1,
          "datasource": {
            "type": "datasource",
            "uid": "grafana"
          },
          "enable": true,
          "hide": true,
          "iconColor": "rgba(0, 211, 255, 1)",
          "name": "Annotations & Alerts",
          "target": {
            "limit": 100,
            "matchAny": false,
            "tags": [],
            "type": "dashboard"
          },
          "type": "dashboard"
        }
      ]
    },
    "description": "Grafana Dashboard for Host Level Metrics using Node Exporter",
    "editable": true,
    "fiscalYearStartMonth": 0,
    "gnetId": 15780,
    "graphTooltip": 0,
    "id": 27,
    "iteration": 1717651919531,
    "links": [],
    "liveNow": false,
    "panels": [
      {
        "collapsed": false,
        "datasource": {
          "type": "prometheus",
          "uid": "ggYhweQnz"
        },
        "gridPos": {
          "h": 1,
          "w": 24,
          "x": 0,
          "y": 0
        },
        "id": 32,
        "panels": [],
        "title": "Historical Mertics",
        "type": "row"
      },
      {
        "aliasColors": {
          "192.168.200.241:9100_Total": "dark-red",
          "Idle - Waiting for something to happen": "#052B51",
          "Percentage of disk spent on I/O operations": "#ba43a9",
          "guest": "#9AC48A",
          "idle": "#052B51",
          "iowait": "#EAB839",
          "irq": "#BF1B00",
          "nice": "#C15C17",
          "sdb_I/O operations per second%": "#d683ce",
          "softirq": "#E24D42",
          "steal": "#FCE2DE",
          "system": "#508642",
          "user": "#5195CE"
        },
        "bars": false,
        "dashLength": 10,
        "dashes": false,
        "datasource": {
          "type": "prometheus",
          "uid": "prometheus"
        },
        "decimals": 2,
        "description": "",
        "fieldConfig": {
          "defaults": {
            "links": []
          },
          "overrides": []
        },
        "fill": 1,
        "fillGradient": 0,
        "gridPos": {
          "h": 8,
          "w": 20,
          "x": 0,
          "y": 1
        },
        "hiddenSeries": false,
        "id": 36,
        "legend": {
          "alignAsTable": true,
          "avg": true,
          "current": true,
          "hideEmpty": true,
          "hideZero": true,
          "max": true,
          "min": true,
          "rightSide": false,
          "show": true,
          "sort": "current",
          "sortDesc": true,
          "total": false,
          "values": true
        },
        "lines": true,
        "linewidth": 2,
        "links": [],
        "maxPerRow": 6,
        "nullPointMode": "null",
        "options": {
          "alertThreshold": true
        },
        "percentage": false,
        "pluginVersion": "9.0.2",
        "pointradius": 5,
        "points": false,
        "renderer": "flot",
        "seriesOverrides": [
          {
            "$$hashKey": "object:3051",
            "alias": "/.*Total/",
            "color": "#C4162A",
            "fill": 0
          }
        ],
        "spaceLength": 10,
        "stack": false,
        "steppedLine": false,
        "targets": [
          {
            "datasource": {
              "type": "prometheus",
              "uid": "prometheus"
            },
            "exemplar": true,
            "expr": "avg(rate(node_cpu_seconds_total{instance=\"$instance\",mode=\"system\"}[$rate_interval])) by (instance) *100",
            "format": "time_series",
            "hide": false,
            "instant": false,
            "interval": "",
            "intervalFactor": 1,
            "legendFormat": "System",
            "refId": "A",
            "step": 20
          },
          {
            "datasource": {
              "type": "prometheus",
              "uid": "prometheus"
            },
            "exemplar": true,
            "expr": "avg(rate(node_cpu_seconds_total{instance=\"$instance\",mode=\"user\"}[$rate_interval])) by (instance) *100",
            "format": "time_series",
            "hide": false,
            "interval": "",
            "intervalFactor": 1,
            "legendFormat": "User",
            "refId": "B",
            "step": 240
          },
          {
            "datasource": {
              "type": "prometheus",
              "uid": "prometheus"
            },
            "exemplar": true,
            "expr": "avg(rate(node_cpu_seconds_total{instance=\"$instance\",mode=\"iowait\"}[$rate_interval])) by (instance) *100",
            "format": "time_series",
            "hide": false,
            "instant": false,
            "interval": "",
            "intervalFactor": 1,
            "legendFormat": "Iowait",
            "refId": "D",
            "step": 240
          },
          {
            "datasource": {
              "type": "prometheus",
              "uid": "prometheus"
            },
            "exemplar": true,
            "expr": "(1 - avg(rate(node_cpu_seconds_total{instance=\"$instance\",mode=\"idle\"}[$rate_interval])) by (instance))*100",
            "format": "time_series",
            "hide": false,
            "interval": "",
            "intervalFactor": 1,
            "legendFormat": "Total",
            "refId": "F",
            "step": 240
          }
        ],
        "thresholds": [],
        "timeRegions": [],
        "title": "CPU% Basic",
        "tooltip": {
          "shared": true,
          "sort": 2,
          "value_type": "individual"
        },
        "type": "graph",
        "xaxis": {
          "mode": "time",
          "show": true,
          "values": []
        },
        "yaxes": [
          {
            "$$hashKey": "object:11294",
            "decimals": 0,
            "format": "percent",
            "label": "",
            "logBase": 1,
            "show": true
          },
          {
            "$$hashKey": "object:11295",
            "format": "short",
            "logBase": 1,
            "show": false
          }
        ],
        "yaxis": {
          "align": false
        }
      },
      {
        "datasource": {
          "uid": "$datasource"
        },
        "fieldConfig": {
          "defaults": {
            "color": {
              "fixedColor": "dark-blue",
              "mode": "fixed"
            },
            "mappings": [],
            "thresholds": {
              "mode": "absolute",
              "steps": [
                {
                  "color": "green",
                  "value": null
                },
                {
                  "color": "red",
                  "value": 80
                }
              ]
            }
          },
          "overrides": []
        },
        "gridPos": {
          "h": 2,
          "w": 2,
          "x": 20,
          "y": 1
        },
        "id": 4,
        "options": {
          "colorMode": "background",
          "graphMode": "none",
          "justifyMode": "center",
          "orientation": "horizontal",
          "reduceOptions": {
            "calcs": [
              "lastNotNull"
            ],
            "fields": "",
            "values": false
          },
          "text": {},
          "textMode": "auto"
        },
        "pluginVersion": "9.0.2",
        "targets": [
          {
            "datasource": {
              "type": "prometheus",
              "uid": "prometheus"
            },
            "exemplar": true,
            "expr": "count(count(node_cpu_seconds_total{instance=\"$instance\"}) by (cpu))",
            "interval": "",
            "legendFormat": "",
            "refId": "A"
          }
        ],
        "title": "CPU Core",
        "type": "stat"
      },
      {
        "datasource": {
          "uid": "$datasource"
        },
        "fieldConfig": {
          "defaults": {
            "color": {
              "fixedColor": "light-yellow",
              "mode": "fixed"
            },
            "decimals": 1,
            "mappings": [],
            "thresholds": {
              "mode": "absolute",
              "steps": [
                {
                  "color": "green",
                  "value": null
                },
                {
                  "color": "red",
                  "value": 80
                }
              ]
            },
            "unit": "s"
          },
          "overrides": []
        },
        "gridPos": {
          "h": 2,
          "w": 2,
          "x": 22,
          "y": 1
        },
        "id": 6,
        "options": {
          "colorMode": "background",
          "graphMode": "none",
          "justifyMode": "center",
          "orientation": "horizontal",
          "reduceOptions": {
            "calcs": [
              "lastNotNull"
            ],
            "fields": "",
            "values": false
          },
          "text": {},
          "textMode": "auto"
        },
        "pluginVersion": "9.0.2",
        "targets": [
          {
            "datasource": {
              "type": "prometheus",
              "uid": "prometheus"
            },
            "exemplar": true,
            "expr": "node_time_seconds{instance=\"$instance\"} - node_boot_time_seconds{instance=\"$instance\"}",
            "interval": "",
            "legendFormat": "",
            "refId": "A"
          }
        ],
        "title": "Uptime",
        "type": "stat"
      },
      {
        "datasource": {
          "uid": "$datasource"
        },
        "description": "Busy state of all CPU cores together (5 min average)",
        "fieldConfig": {
          "defaults": {
            "color": {
              "mode": "thresholds"
            },
            "decimals": 0,
            "mappings": [
              {
                "options": {
                  "match": "null",
                  "result": {
                    "index": 0,
                    "text": "N/A"
                  }
                },
                "type": "special"
              }
            ],
            "max": 100,
            "min": 0,
            "thresholds": {
              "mode": "absolute",
              "steps": [
                {
                  "color": "green",
                  "value": null
                },
                {
                  "color": "semi-dark-orange",
                  "value": 80
                },
                {
                  "color": "semi-dark-red",
                  "value": 90
                }
              ]
            },
            "unit": "none"
          },
          "overrides": []
        },
        "gridPos": {
          "h": 6,
          "w": 4,
          "x": 20,
          "y": 3
        },
        "id": 8,
        "options": {
          "colorMode": "background",
          "graphMode": "none",
          "justifyMode": "center",
          "orientation": "auto",
          "reduceOptions": {
            "calcs": [
              "lastNotNull"
            ],
            "fields": "",
            "values": false
          },
          "text": {},
          "textMode": "auto"
        },
        "pluginVersion": "9.0.2",
        "targets": [
          {
            "datasource": {
              "type": "prometheus",
              "uid": "prometheus"
            },
            "exemplar": true,
            "expr": "avg(node_load1{instance=\"$instance\",job=\"$job\"}) /  count(count(node_cpu_seconds_total{instance=\"$instance\",job=\"$job\"}) by (cpu))",
            "interval": "",
            "legendFormat": "1 min",
            "refId": "A"
          },
          {
            "datasource": {
              "type": "prometheus",
              "uid": "prometheus"
            },
            "exemplar": true,
            "expr": "avg(node_load5{instance=\"$instance\",job=\"$job\"}) /  count(count(node_cpu_seconds_total{instance=\"$instance\",job=\"$job\"}) by (cpu)) ",
            "hide": false,
            "interval": "",
            "legendFormat": "5 min",
            "refId": "B"
          },
          {
            "datasource": {
              "type": "prometheus",
              "uid": "prometheus"
            },
            "exemplar": true,
            "expr": "avg(node_load15{instance=\"$instance\",job=\"$job\"}) /  count(count(node_cpu_seconds_total{instance=\"$instance\",job=\"$job\"}) by (cpu)) ",
            "hide": false,
            "interval": "",
            "legendFormat": "15 min",
            "refId": "C"
          }
        ],
        "title": "Sys Load avg",
        "transparent": true,
        "type": "stat"
      },
      {
        "aliasColors": {},
        "bars": false,
        "dashLength": 10,
        "dashes": false,
        "datasource": {
          "type": "prometheus",
          "uid": "$datasource"
        },
        "decimals": 2,
        "description": "Basic memory usage",
        "fieldConfig": {
          "defaults": {
            "links": [],
            "unit": "decgbytes"
          },
          "overrides": []
        },
        "fill": 2,
        "fillGradient": 6,
        "gridPos": {
          "h": 7,
          "w": 20,
          "x": 0,
          "y": 9
        },
        "hiddenSeries": false,
        "id": 10,
        "legend": {
          "alignAsTable": true,
          "avg": true,
          "current": true,
          "max": true,
          "min": true,
          "show": true,
          "total": false,
          "values": true
        },
        "lines": true,
        "linewidth": 1,
        "nullPointMode": "null",
        "options": {
          "alertThreshold": true
        },
        "percentage": false,
        "pluginVersion": "9.0.2",
        "pointradius": 2,
        "points": false,
        "renderer": "flot",
        "seriesOverrides": [
          {
            "$$hashKey": "object:1360",
            "alias": "RAM Total",
            "color": "#FFF899",
            "fill": 0,
            "stack": false
          },
          {
            "$$hashKey": "object:1402",
            "alias": "RAM Cache + Buffer",
            "color": "#1F60C4"
          },
          {
            "$$hashKey": "object:1410",
            "alias": "RAM Free",
            "color": "#37872D",
            "yaxis": 1
          },
          {
            "$$hashKey": "object:1422",
            "alias": "Avaliable",
            "color": "#FFB357",
            "fill": 0,
            "stack": false
          }
        ],
        "spaceLength": 10,
        "stack": true,
        "steppedLine": false,
        "targets": [
          {
            "datasource": {
              "type": "prometheus",
              "uid": "prometheus"
            },
            "exemplar": true,
            "expr": "node_memory_MemTotal_bytes{instance=\"$instance\"} / 1024 / 1024 / 1024",
            "interval": "",
            "legendFormat": "RAM Total",
            "refId": "A"
          },
          {
            "datasource": {
              "type": "prometheus",
              "uid": "prometheus"
            },
            "exemplar": true,
            "expr": "node_memory_MemTotal_bytes{instance=\"$instance\",job=\"$job\"} - node_memory_MemFree_bytes{instance=\"$instance\",job=\"$job\"} - (node_memory_Cached_bytes{instance=\"$instance\",job=\"$job\"} + node_memory_Buffers_bytes{instance=\"$instan\",job=\"$job\"})",
            "hide": false,
            "interval": "",
            "legendFormat": "RAM Used",
            "refId": "B"
          },
          {
            "datasource": {
              "type": "prometheus",
              "uid": "prometheus"
            },
            "exemplar": true,
            "expr": "((node_memory_Cached_bytes{instance=\"$instance\",job=\"$job\"} + node_memory_Buffers_bytes{instance=\"$instance\",job=\"$job\"}) / 1024 / 1024 / 1024)",
            "hide": false,
            "interval": "",
            "legendFormat": "RAM Cache + Buffer",
            "refId": "C"
          },
          {
            "datasource": {
              "type": "prometheus",
              "uid": "prometheus"
            },
            "exemplar": true,
            "expr": "node_memory_MemAvailable_bytes{instance=\"$instance\",job=\"$job\"} / (1024 * 1024 * 1024)",
            "hide": false,
            "interval": "",
            "legendFormat": "RAM Free",
            "refId": "D"
          },
          {
            "datasource": {
              "type": "prometheus",
              "uid": "prometheus"
            },
            "exemplar": true,
            "expr": "(node_memory_SwapTotal_bytes{instance=\"$instance\",job=\"$job\"} - node_memory_SwapFree_bytes{instance=\"$instance\",job=\"$job\"})",
            "hide": false,
            "interval": "",
            "legendFormat": "SWAP Used",
            "refId": "E"
          }
        ],
        "thresholds": [],
        "timeRegions": [],
        "title": "Memory Basic",
        "tooltip": {
          "shared": true,
          "sort": 0,
          "value_type": "individual"
        },
        "type": "graph",
        "xaxis": {
          "mode": "time",
          "show": true,
          "values": []
        },
        "yaxes": [
          {
            "$$hashKey": "object:1332",
            "format": "decgbytes",
            "logBase": 1,
            "min": "0",
            "show": true
          },
          {
            "$$hashKey": "object:1333",
            "format": "short",
            "logBase": 1,
            "show": true
          }
        ],
        "yaxis": {
          "align": false
        }
      },
      {
        "datasource": {
          "type": "prometheus",
          "uid": "$datasource"
        },
        "description": "Node Memory info",
        "fieldConfig": {
          "defaults": {
            "color": {
              "mode": "thresholds"
            },
            "mappings": [],
            "thresholds": {
              "mode": "absolute",
              "steps": [
                {
                  "color": "green",
                  "value": null
                },
                {
                  "color": "light-orange",
                  "value": 0.2
                },
                {
                  "color": "dark-red",
                  "value": 0.7
                },
                {
                  "color": "semi-dark-green",
                  "value": 0.9
                }
              ]
            }
          },
          "overrides": []
        },
        "gridPos": {
          "h": 7,
          "w": 4,
          "x": 20,
          "y": 9
        },
        "id": 12,
        "options": {
          "colorMode": "background",
          "graphMode": "none",
          "justifyMode": "center",
          "orientation": "auto",
          "reduceOptions": {
            "calcs": [
              "lastNotNull"
            ],
            "fields": "",
            "values": false
          },
          "text": {},
          "textMode": "auto"
        },
        "pluginVersion": "9.0.2",
        "targets": [
          {
            "datasource": {
              "type": "prometheus",
              "uid": "prometheus"
            },
            "exemplar": true,
            "expr": "ceil(node_memory_MemTotal_bytes{instance=\"$instance\"}/(1024*1024))/1024",
            "interval": "",
            "legendFormat": "Total GB",
            "refId": "A"
          },
          {
            "datasource": {
              "type": "prometheus",
              "uid": "prometheus"
            },
            "exemplar": true,
            "expr": "node_memory_MemAvailable_bytes{instance=\"$instance\"} / (1024 * 1024 * 1024)",
            "hide": false,
            "interval": "",
            "legendFormat": "Available GB",
            "refId": "B"
          },
          {
            "datasource": {
              "type": "prometheus",
              "uid": "prometheus"
            },
            "exemplar": true,
            "expr": "((node_memory_MemTotal_bytes{instance=\"$instance\"} - node_memory_MemFree_bytes{instance=\"$instance\"} - node_memory_Buffers_bytes{instance=\"$instance\"} - node_memory_Cached_bytes{instance=\"$instance\"} - node_memory_SReclaimable_bytes{instance=\"$instance\"} + node_memory_Shmem_bytes{instance=\"$instance\"}) / (1024 * 1024 * 1024))",
            "hide": false,
            "interval": "",
            "legendFormat": "Used GB",
            "refId": "C"
          }
        ],
        "title": "RAM info",
        "type": "stat"
      },
      {
        "aliasColors": {},
        "bars": false,
        "dashLength": 10,
        "dashes": false,
        "datasource": {
          "uid": "$datasource"
        },
        "decimals": 2,
        "fieldConfig": {
          "defaults": {
            "links": []
          },
          "overrides": []
        },
        "fill": 3,
        "fillGradient": 0,
        "gridPos": {
          "h": 8,
          "w": 19,
          "x": 0,
          "y": 16
        },
        "hiddenSeries": false,
        "id": 14,
        "legend": {
          "alignAsTable": true,
          "avg": true,
          "current": true,
          "max": true,
          "min": true,
          "show": true,
          "total": false,
          "values": true
        },
        "lines": true,
        "linewidth": 1,
        "nullPointMode": "null",
        "options": {
          "alertThreshold": true
        },
        "percentage": false,
        "pluginVersion": "9.0.2",
        "pointradius": 2,
        "points": false,
        "renderer": "flot",
        "seriesOverrides": [],
        "spaceLength": 10,
        "stack": false,
        "steppedLine": false,
        "targets": [
          {
            "datasource": {
              "type": "prometheus",
              "uid": "prometheus"
            },
            "exemplar": true,
            "expr": "node_filesystem_size_bytes{instance=\"$instance\",job=\"$job\",device!~'rootfs'} - node_filesystem_avail_bytes{instance=\"$instance\",job=\"$job\",device!~'rootfs'}",
            "interval": "",
            "legendFormat": "{{mountpoint}}",
            "refId": "A"
          }
        ],
        "thresholds": [
          {
            "$$hashKey": "object:1529",
            "colorMode": "critical",
            "fill": false,
            "fillColor": "rgba(51, 162, 229, 0.2)",
            "line": true,
            "lineColor": "rgba(31, 96, 196, 0.6)",
            "op": "gt",
            "yaxis": "left"
          }
        ],
        "timeRegions": [],
        "title": "Disk Space Used",
        "tooltip": {
          "shared": true,
          "sort": 0,
          "value_type": "individual"
        },
        "type": "graph",
        "xaxis": {
          "mode": "time",
          "show": true,
          "values": []
        },
        "yaxes": [
          {
            "$$hashKey": "object:1501",
            "format": "bytes",
            "label": "bytes",
            "logBase": 1,
            "min": "0",
            "show": true
          },
          {
            "$$hashKey": "object:1502",
            "format": "short",
            "logBase": 1,
            "show": true
          }
        ],
        "yaxis": {
          "align": false
        }
      },
      {
        "datasource": {
          "uid": "$datasource"
        },
        "description": "device=\"/dev/root\n",
        "fieldConfig": {
          "defaults": {
            "color": {
              "mode": "thresholds"
            },
            "mappings": [],
            "thresholds": {
              "mode": "absolute",
              "steps": [
                {
                  "color": "semi-dark-red"
                },
                {
                  "color": "#EAB839",
                  "value": 4.5
                },
                {
                  "color": "light-green",
                  "value": 6
                }
              ]
            }
          },
          "overrides": []
        },
        "gridPos": {
          "h": 8,
          "w": 5,
          "x": 19,
          "y": 16
        },
        "id": 16,
        "options": {
          "colorMode": "background",
          "graphMode": "none",
          "justifyMode": "center",
          "orientation": "auto",
          "reduceOptions": {
            "calcs": [
              "lastNotNull"
            ],
            "fields": "",
            "values": false
          },
          "text": {},
          "textMode": "auto"
        },
        "pluginVersion": "9.0.2",
        "targets": [
          {
            "datasource": {
              "type": "prometheus",
              "uid": "prometheus"
            },
            "exemplar": true,
            "expr": "ceil(node_filesystem_size_bytes{device=\"/dev/root\",instance=\"$instance\"}/(1024*1024))/1024",
            "interval": "",
            "legendFormat": "Total GB",
            "refId": "A"
          },
          {
            "datasource": {
              "type": "prometheus",
              "uid": "prometheus"
            },
            "exemplar": true,
            "expr": "ceil(node_filesystem_avail_bytes{device=\"/dev/root\",instance=\"$instance\"}/(1024*1024))/1024",
            "hide": false,
            "interval": "",
            "legendFormat": "Available GB",
            "refId": "B"
          },
          {
            "datasource": {
              "type": "prometheus",
              "uid": "prometheus"
            },
            "exemplar": true,
            "expr": "ceil(node_filesystem_size_bytes{device=\"/dev/root\",instance=\"$instance\"}/(1024*1024))/1024-ceil(node_filesystem_avail_bytes{device=\"/dev/root\",instance=\"$instance\"}/(1024*1024))/1024",
            "hide": false,
            "interval": "",
            "legendFormat": "Used GB",
            "refId": "C"
          }
        ],
        "title": "ROOT FILESYSTEM",
        "type": "stat"
      },
      {
        "aliasColors": {},
        "bars": false,
        "dashLength": 10,
        "dashes": false,
        "datasource": {
          "uid": "$datasource"
        },
        "description": "Network received and transmit",
        "fieldConfig": {
          "defaults": {
            "links": [],
            "unit": "KBs"
          },
          "overrides": []
        },
        "fill": 1,
        "fillGradient": 0,
        "gridPos": {
          "h": 8,
          "w": 12,
          "x": 0,
          "y": 24
        },
        "hiddenSeries": false,
        "id": 18,
        "legend": {
          "alignAsTable": true,
          "avg": true,
          "current": true,
          "max": true,
          "min": true,
          "show": true,
          "total": false,
          "values": true
        },
        "lines": true,
        "linewidth": 1,
        "nullPointMode": "null",
        "options": {
          "alertThreshold": true
        },
        "percentage": false,
        "pluginVersion": "9.0.2",
        "pointradius": 2,
        "points": false,
        "renderer": "flot",
        "seriesOverrides": [],
        "spaceLength": 10,
        "stack": false,
        "steppedLine": false,
        "targets": [
          {
            "datasource": {
              "type": "prometheus",
              "uid": "prometheus"
            },
            "exemplar": true,
            "expr": "irate(node_network_receive_bytes_total{instance=\"$instance\"}[5m])",
            "interval": "",
            "legendFormat": "{{device}}  receive",
            "refId": "A"
          },
          {
            "datasource": {
              "type": "prometheus",
              "uid": "prometheus"
            },
            "exemplar": true,
            "expr": "irate(node_network_transmit_bytes_total{ instance=\"$instance\"}[5m])",
            "hide": false,
            "interval": "",
            "legendFormat": "{{device}} transmit",
            "refId": "B"
          }
        ],
        "thresholds": [],
        "timeRegions": [],
        "title": "Network I/O",
        "tooltip": {
          "shared": true,
          "sort": 0,
          "value_type": "individual"
        },
        "type": "graph",
        "xaxis": {
          "mode": "time",
          "show": true,
          "values": []
        },
        "yaxes": [
          {
            "$$hashKey": "object:1686",
            "format": "KBs",
            "logBase": 1,
            "show": true
          },
          {
            "$$hashKey": "object:1687",
            "format": "short",
            "logBase": 1,
            "show": true
          }
        ],
        "yaxis": {
          "align": false
        }
      },
      {
        "datasource": {
          "type": "prometheus",
          "uid": "$datasource"
        },
        "fieldConfig": {
          "defaults": {
            "color": {
              "mode": "palette-classic"
            },
            "custom": {
              "axisLabel": "IO read (-) / write (+)",
              "axisPlacement": "auto",
              "barAlignment": 0,
              "drawStyle": "line",
              "fillOpacity": 0,
              "gradientMode": "none",
              "hideFrom": {
                "legend": false,
                "tooltip": false,
                "viz": false
              },
              "lineInterpolation": "linear",
              "lineWidth": 1,
              "pointSize": 3,
              "scaleDistribution": {
                "type": "linear"
              },
              "showPoints": "always",
              "spanNulls": false,
              "stacking": {
                "group": "A",
                "mode": "none"
              },
              "thresholdsStyle": {
                "mode": "line+area"
              }
            },
            "links": [],
            "mappings": [],
            "thresholds": {
              "mode": "absolute",
              "steps": [
                {
                  "color": "transparent"
                },
                {
                  "color": "red",
                  "value": 0
                },
                {
                  "color": "orange",
                  "value": 3
                },
                {
                  "color": "red",
                  "value": 5
                }
              ]
            },
            "unit": "iops"
          },
          "overrides": [
            {
              "matcher": {
                "id": "byRegexp",
                "options": "/.*sda_.*/"
              },
              "properties": [
                {
                  "id": "color",
                  "value": {
                    "fixedColor": "#FFA6B0",
                    "mode": "fixed"
                  }
                }
              ]
            },
            {
              "matcher": {
                "id": "byRegexp",
                "options": "/.*sdb_.*/"
              },
              "properties": [
                {
                  "id": "color",
                  "value": {
                    "fixedColor": "#FFCB7D",
                    "mode": "fixed"
                  }
                }
              ]
            },
            {
              "matcher": {
                "id": "byRegexp",
                "options": "/.*sdc_.*/"
              },
              "properties": [
                {
                  "id": "color",
                  "value": {
                    "fixedColor": "#FFF899",
                    "mode": "fixed"
                  }
                }
              ]
            },
            {
              "matcher": {
                "id": "byRegexp",
                "options": "/.*sda1.*/"
              },
              "properties": [
                {
                  "id": "color",
                  "value": {
                    "fixedColor": "#C8F2C2",
                    "mode": "fixed"
                  }
                }
              ]
            },
            {
              "matcher": {
                "id": "byRegexp",
                "options": "/.*sda2_.*/"
              },
              "properties": [
                {
                  "id": "color",
                  "value": {
                    "fixedColor": "#C0D8FF",
                    "mode": "fixed"
                  }
                }
              ]
            },
            {
              "matcher": {
                "id": "byRegexp",
                "options": "/.*sda3_.*/"
              },
              "properties": [
                {
                  "id": "color",
                  "value": {
                    "fixedColor": "#DEB6F2",
                    "mode": "fixed"
                  }
                }
              ]
            },
            {
              "matcher": {
                "id": "byRegexp",
                "options": "/.*sdb1.*/"
              },
              "properties": [
                {
                  "id": "color",
                  "value": {
                    "fixedColor": "#FF7383",
                    "mode": "fixed"
                  }
                }
              ]
            },
            {
              "matcher": {
                "id": "byRegexp",
                "options": "/.*sdb2.*/"
              },
              "properties": [
                {
                  "id": "color",
                  "value": {
                    "fixedColor": "#FFB357",
                    "mode": "fixed"
                  }
                }
              ]
            },
            {
              "matcher": {
                "id": "byRegexp",
                "options": "/.*sdb3.*/"
              },
              "properties": [
                {
                  "id": "color",
                  "value": {
                    "fixedColor": "#FFEE52",
                    "mode": "fixed"
                  }
                }
              ]
            },
            {
              "matcher": {
                "id": "byRegexp",
                "options": "/.*sdc1.*/"
              },
              "properties": [
                {
                  "id": "color",
                  "value": {
                    "fixedColor": "#96D98D",
                    "mode": "fixed"
                  }
                }
              ]
            },
            {
              "matcher": {
                "id": "byRegexp",
                "options": "/.*sdc2.*/"
              },
              "properties": [
                {
                  "id": "color",
                  "value": {
                    "fixedColor": "#8AB8FF",
                    "mode": "fixed"
                  }
                }
              ]
            },
            {
              "matcher": {
                "id": "byRegexp",
                "options": "/.*sdc3.*/"
              },
              "properties": [
                {
                  "id": "color",
                  "value": {
                    "fixedColor": "#CA95E5",
                    "mode": "fixed"
                  }
                }
              ]
            },
            {
              "matcher": {
                "id": "byRegexp",
                "options": "/.*sdd1.*/"
              },
              "properties": [
                {
                  "id": "color",
                  "value": {
                    "fixedColor": "#E02F44",
                    "mode": "fixed"
                  }
                }
              ]
            },
            {
              "matcher": {
                "id": "byRegexp",
                "options": "/.*sdd2.*/"
              },
              "properties": [
                {
                  "id": "color",
                  "value": {
                    "fixedColor": "#FF780A",
                    "mode": "fixed"
                  }
                }
              ]
            },
            {
              "matcher": {
                "id": "byRegexp",
                "options": "/.*sdd3.*/"
              },
              "properties": [
                {
                  "id": "color",
                  "value": {
                    "fixedColor": "#F2CC0C",
                    "mode": "fixed"
                  }
                }
              ]
            },
            {
              "matcher": {
                "id": "byRegexp",
                "options": "/.*sde1.*/"
              },
              "properties": [
                {
                  "id": "color",
                  "value": {
                    "fixedColor": "#56A64B",
                    "mode": "fixed"
                  }
                }
              ]
            },
            {
              "matcher": {
                "id": "byRegexp",
                "options": "/.*sdd2.*/"
              },
              "properties": [
                {
                  "id": "color",
                  "value": {
                    "fixedColor": "#3274D9",
                    "mode": "fixed"
                  }
                }
              ]
            },
            {
              "matcher": {
                "id": "byRegexp",
                "options": "/.*sde3.*/"
              },
              "properties": [
                {
                  "id": "color",
                  "value": {
                    "fixedColor": "#A352CC",
                    "mode": "fixed"
                  }
                }
              ]
            },
            {
              "__systemRef": "hideSeriesFrom",
              "matcher": {
                "id": "byNames",
                "options": {
                  "mode": "exclude",
                  "names": [
                    "nvme0n1 - Reads completed"
                  ],
                  "prefix": "All except:",
                  "readOnly": true
                }
              },
              "properties": [
                {
                  "id": "custom.hideFrom",
                  "value": {
                    "legend": false,
                    "tooltip": false,
                    "viz": true
                  }
                }
              ]
            }
          ]
        },
        "gridPos": {
          "h": 8,
          "w": 12,
          "x": 12,
          "y": 24
        },
        "id": 20,
        "options": {
          "legend": {
            "calcs": [
              "min",
              "max",
              "sum"
            ],
            "displayMode": "table",
            "placement": "bottom"
          },
          "tooltip": {
            "mode": "multi",
            "sort": "none"
          }
        },
        "pluginVersion": "9.0.2",
        "targets": [
          {
            "datasource": {
              "type": "prometheus",
              "uid": "prometheus"
            },
            "exemplar": true,
            "expr": "rate(node_disk_reads_completed_total{instance=\"$instance\",job=\"$job\"}[$rate_interval])",
            "interval": "",
            "legendFormat": "{{device}} - Reads completed",
            "refId": "A"
          },
          {
            "datasource": {
              "type": "prometheus",
              "uid": "prometheus"
            },
            "exemplar": true,
            "expr": "rate(node_disk_writes_completed_total{instance=\"$instance\",job=\"$job\"}[$rate_interval])",
            "hide": false,
            "interval": "",
            "legendFormat": "{{device}} - Writes completed",
            "refId": "B"
          }
        ],
        "title": "Disk I/O",
        "type": "timeseries"
      },
      {
        "aliasColors": {
          "io time": "#890F02"
        },
        "bars": false,
        "dashLength": 10,
        "dashes": false,
        "datasource": {
          "type": "prometheus",
          "uid": "prometheus"
        },
        "decimals": 3,
        "description": "",
        "fieldConfig": {
          "defaults": {
            "links": [],
            "unit": "Bps"
          },
          "overrides": []
        },
        "fill": 4,
        "fillGradient": 0,
        "gridPos": {
          "h": 9,
          "w": 24,
          "x": 0,
          "y": 32
        },
        "hiddenSeries": false,
        "id": 38,
        "legend": {
          "alignAsTable": true,
          "avg": true,
          "current": true,
          "max": true,
          "min": true,
          "rightSide": false,
          "show": true,
          "total": false,
          "values": true
        },
        "lines": true,
        "linewidth": 1,
        "links": [],
        "maxPerRow": 6,
        "nullPointMode": "null",
        "options": {
          "alertThreshold": true
        },
        "percentage": false,
        "pluginVersion": "9.0.2",
        "pointradius": 5,
        "points": false,
        "renderer": "flot",
        "seriesOverrides": [
          {
            "$$hashKey": "object:200",
            "alias": "/.*read*./",
            "transform": "negative-Y"
          },
          {
            "$$hashKey": "object:201",
            "alias": "/.*sda.*/",
            "color": "#7EB26D"
          },
          {
            "$$hashKey": "object:202",
            "alias": "/.*sdb.*/",
            "color": "#EAB839"
          },
          {
            "$$hashKey": "object:203",
            "alias": "/.*sdc.*/",
            "color": "#6ED0E0"
          },
          {
            "$$hashKey": "object:204",
            "alias": "/.*sdd.*/",
            "color": "#EF843C"
          },
          {
            "$$hashKey": "object:205",
            "alias": "/.*sde.*/",
            "color": "#E24D42"
          }
        ],
        "spaceLength": 10,
        "stack": false,
        "steppedLine": false,
        "targets": [
          {
            "datasource": {
              "type": "prometheus",
              "uid": "prometheus"
            },
            "expr": "rate(node_disk_read_bytes_total{instance=\"$instance\",job=\"$job\"}[$rate_interval])",
            "format": "time_series",
            "hide": false,
            "intervalFactor": 1,
            "legendFormat": "{{device}} - Successfully read bytes",
            "refId": "A",
            "step": 240
          },
          {
            "datasource": {
              "type": "prometheus",
              "uid": "prometheus"
            },
            "expr": "rate(node_disk_written_bytes_total{instance=\"$instance\",job=\"$job\"}[$rate_interval])",
            "format": "time_series",
            "hide": false,
            "intervalFactor": 1,
            "legendFormat": "{{device}} - Successfully written bytes",
            "refId": "B",
            "step": 240
          }
        ],
        "thresholds": [],
        "timeRegions": [],
        "title": "I/O Usage Read / Write",
        "tooltip": {
          "shared": true,
          "sort": 0,
          "value_type": "individual"
        },
        "type": "graph",
        "xaxis": {
          "mode": "time",
          "show": false,
          "values": []
        },
        "yaxes": [
          {
            "$$hashKey": "object:965",
            "format": "Bps",
            "label": "bytes read (-) / write (+)",
            "logBase": 1,
            "show": true
          },
          {
            "$$hashKey": "object:966",
            "format": "ms",
            "label": "",
            "logBase": 1,
            "show": true
          }
        ],
        "yaxis": {
          "align": false
        }
      },
      {
        "collapsed": false,
        "datasource": {
          "type": "prometheus",
          "uid": "ggYhweQnz"
        },
        "gridPos": {
          "h": 1,
          "w": 24,
          "x": 0,
          "y": 41
        },
        "id": 34,
        "panels": [],
        "title": "Current metrics",
        "type": "row"
      },
      {
        "datasource": {
          "type": "prometheus",
          "uid": "$datasource"
        },
        "fieldConfig": {
          "defaults": {
            "color": {
              "mode": "thresholds"
            },
            "mappings": [
              {
                "options": {
                  "match": "null",
                  "result": {
                    "index": 0,
                    "text": "N/A"
                  }
                },
                "type": "special"
              }
            ],
            "max": 100,
            "min": 0,
            "thresholds": {
              "mode": "percentage",
              "steps": [
                {
                  "color": "green"
                },
                {
                  "color": "#EAB839",
                  "value": 75
                },
                {
                  "color": "red",
                  "value": 90
                }
              ]
            },
            "unit": "percent"
          },
          "overrides": []
        },
        "gridPos": {
          "h": 5,
          "w": 12,
          "x": 0,
          "y": 42
        },
        "id": 22,
        "options": {
          "displayMode": "lcd",
          "minVizHeight": 10,
          "minVizWidth": 0,
          "orientation": "horizontal",
          "reduceOptions": {
            "calcs": [
              "lastNotNull"
            ],
            "fields": "",
            "values": false
          },
          "showUnfilled": true,
          "text": {}
        },
        "pluginVersion": "9.0.2",
        "targets": [
          {
            "datasource": {
              "type": "prometheus",
              "uid": "prometheus"
            },
            "exemplar": true,
            "expr": "(((count(count(node_cpu_seconds_total{instance=\"$instance\",job=\"$job\"}) by (cpu))) - avg(sum by (mode)(rate(node_cpu_seconds_total{mode='idle',instance=\"$instance\",job=\"$job\"}[$rate_interval])))) * 100) / count(count(node_cpu_seconds_total{instance=\"$instance\",job=\"$job\"}) by (cpu))",
            "interval": "",
            "legendFormat": "CPU Usage",
            "refId": "A"
          },
          {
            "datasource": {
              "type": "prometheus",
              "uid": "prometheus"
            },
            "exemplar": true,
            "expr": "100 - ((node_memory_MemAvailable_bytes{instance=\"$instance\",job=\"$job\"} * 100) / node_memory_MemTotal_bytes{instance=\"$instance\",job=\"$job\"})",
            "hide": false,
            "interval": "",
            "legendFormat": "RAM Used",
            "refId": "B"
          },
          {
            "datasource": {
              "type": "prometheus",
              "uid": "prometheus"
            },
            "exemplar": true,
            "expr": "100 - ((node_filesystem_avail_bytes{instance=\"$instance\",job=\"$job\",mountpoint=\"/\",fstype!=\"rootfs\"} * 100) / node_filesystem_size_bytes{instance=\"$instance\",job=\"$job\",mountpoint=\"/\",fstype!=\"rootfs\"})",
            "hide": false,
            "interval": "",
            "legendFormat": "Root FS Used",
            "refId": "C"
          }
        ],
        "transparent": true,
        "type": "bargauge"
      },
      {
        "datasource": {
          "uid": "$datasource"
        },
        "description": "",
        "fieldConfig": {
          "defaults": {
            "color": {
              "mode": "thresholds"
            },
            "mappings": [],
            "thresholds": {
              "mode": "absolute",
              "steps": [
                {
                  "color": "super-light-blue"
                }
              ]
            },
            "unit": "bytes"
          },
          "overrides": []
        },
        "gridPos": {
          "h": 5,
          "w": 4,
          "x": 12,
          "y": 42
        },
        "id": 24,
        "options": {
          "colorMode": "background",
          "graphMode": "none",
          "justifyMode": "auto",
          "orientation": "auto",
          "reduceOptions": {
            "calcs": [
              "lastNotNull"
            ],
            "fields": "",
            "values": false
          },
          "text": {},
          "textMode": "auto"
        },
        "pluginVersion": "9.0.2",
        "targets": [
          {
            "datasource": {
              "type": "prometheus",
              "uid": "prometheus"
            },
            "exemplar": true,
            "expr": "node_network_transmit_bytes_total{device=\"$network_interface\",instance=~'$instance'}",
            "interval": "",
            "legendFormat": "",
            "refId": "A"
          }
        ],
        "title": "Network Traffic Out",
        "transparent": true,
        "type": "stat"
      },
      {
        "datasource": {
          "uid": "$datasource"
        },
        "fieldConfig": {
          "defaults": {
            "color": {
              "mode": "thresholds"
            },
            "mappings": [],
            "thresholds": {
              "mode": "absolute",
              "steps": [
                {
                  "color": "light-blue"
                }
              ]
            },
            "unit": "bytes"
          },
          "overrides": []
        },
        "gridPos": {
          "h": 5,
          "w": 4,
          "x": 16,
          "y": 42
        },
        "id": 26,
        "options": {
          "colorMode": "background",
          "graphMode": "none",
          "justifyMode": "auto",
          "orientation": "auto",
          "reduceOptions": {
            "calcs": [
              "lastNotNull"
            ],
            "fields": "",
            "values": false
          },
          "text": {},
          "textMode": "auto"
        },
        "pluginVersion": "9.0.2",
        "targets": [
          {
            "datasource": {
              "type": "prometheus",
              "uid": "prometheus"
            },
            "exemplar": true,
            "expr": "node_network_receive_bytes_total{device=\"$network_interface\",instance=~'$instance'}",
            "interval": "",
            "legendFormat": "",
            "refId": "A"
          }
        ],
        "title": "Network Traffic In",
        "transparent": true,
        "type": "stat"
      },
      {
        "datasource": {
          "uid": "$datasource"
        },
        "fieldConfig": {
          "defaults": {
            "color": {
              "mode": "thresholds"
            },
            "mappings": [
              {
                "options": {
                  "match": "null",
                  "result": {
                    "index": 0,
                    "text": "N/A"
                  }
                },
                "type": "special"
              }
            ],
            "thresholds": {
              "mode": "absolute",
              "steps": [
                {
                  "color": "dark-red"
                },
                {
                  "color": "semi-dark-orange",
                  "value": 100000
                },
                {
                  "color": "dark-green",
                  "value": 10000000
                }
              ]
            },
            "unit": "short"
          },
          "overrides": []
        },
        "gridPos": {
          "h": 5,
          "w": 4,
          "x": 20,
          "y": 42
        },
        "id": 28,
        "options": {
          "colorMode": "value",
          "graphMode": "none",
          "justifyMode": "auto",
          "orientation": "horizontal",
          "reduceOptions": {
            "calcs": [
              "lastNotNull"
            ],
            "fields": "",
            "values": false
          },
          "text": {},
          "textMode": "auto"
        },
        "pluginVersion": "9.0.2",
        "targets": [
          {
            "datasource": {
              "type": "prometheus",
              "uid": "prometheus"
            },
            "exemplar": true,
            "expr": "avg(node_filesystem_files_free{instance=~\"$instance\",fstype=~\"ext.?|xfs\"})",
            "instant": true,
            "interval": "",
            "legendFormat": "",
            "refId": "A"
          }
        ],
        "title": "Free inodes:$maxmount ",
        "transparent": true,
        "type": "stat"
      },
      {
        "datasource": {
          "uid": "$datasource"
        },
        "fieldConfig": {
          "defaults": {
            "color": {
              "mode": "thresholds"
            },
            "custom": {
              "align": "auto",
              "displayMode": "auto",
              "inspect": false
            },
            "decimals": 2,
            "mappings": [],
            "thresholds": {
              "mode": "absolute",
              "steps": [
                {
                  "color": "green"
                },
                {
                  "color": "red",
                  "value": 80
                }
              ]
            },
            "unit": "short"
          },
          "overrides": [
            {
              "matcher": {
                "id": "byName",
                "options": "mountpoint"
              },
              "properties": [
                {
                  "id": "displayName",
                  "value": "Mounted on"
                },
                {
                  "id": "unit",
                  "value": "bytes"
                },
                {
                  "id": "decimals",
                  "value": 1
                },
                {
                  "id": "custom.align",
                  "value": "auto"
                },
                {
                  "id": "thresholds",
                  "value": {
                    "mode": "absolute",
                    "steps": [
                      {
                        "color": "green"
                      }
                    ]
                  }
                }
              ]
            },
            {
              "matcher": {
                "id": "byName",
                "options": "Value #B"
              },
              "properties": [
                {
                  "id": "displayName",
                  "value": "Avail"
                },
                {
                  "id": "unit",
                  "value": "bytes"
                },
                {
                  "id": "decimals",
                  "value": 1
                },
                {
                  "id": "custom.displayMode",
                  "value": "color-text"
                },
                {
                  "id": "custom.align",
                  "value": "auto"
                },
                {
                  "id": "thresholds",
                  "value": {
                    "mode": "absolute",
                    "steps": [
                      {
                        "color": "dark-red"
                      },
                      {
                        "color": "semi-dark-orange",
                        "value": 10000000000
                      },
                      {
                        "color": "semi-dark-green",
                        "value": 20000000000
                      }
                    ]
                  }
                }
              ]
            },
            {
              "matcher": {
                "id": "byName",
                "options": "Value #C"
              },
              "properties": [
                {
                  "id": "displayName",
                  "value": "Used"
                },
                {
                  "id": "unit",
                  "value": "percent"
                },
                {
                  "id": "decimals",
                  "value": 1
                },
                {
                  "id": "custom.displayMode",
                  "value": "color-background"
                },
                {
                  "id": "custom.align",
                  "value": "auto"
                },
                {
                  "id": "thresholds",
                  "value": {
                    "mode": "absolute",
                    "steps": [
                      {
                        "color": "green"
                      },
                      {
                        "color": "#EAB839",
                        "value": 70
                      },
                      {
                        "color": "red",
                        "value": 85
                      }
                    ]
                  }
                }
              ]
            },
            {
              "matcher": {
                "id": "byName",
                "options": "Value #A"
              },
              "properties": [
                {
                  "id": "displayName",
                  "value": "Size"
                },
                {
                  "id": "unit",
                  "value": "bytes"
                },
                {
                  "id": "custom.align",
                  "value": "auto"
                }
              ]
            },
            {
              "matcher": {
                "id": "byName",
                "options": "fstype"
              },
              "properties": [
                {
                  "id": "displayName",
                  "value": "Filesystem"
                },
                {
                  "id": "unit",
                  "value": "short"
                },
                {
                  "id": "decimals",
                  "value": 2
                },
                {
                  "id": "custom.align",
                  "value": "auto"
                }
              ]
            },
            {
              "matcher": {
                "id": "byName",
                "options": "device"
              },
              "properties": [
                {
                  "id": "displayName",
                  "value": "Device"
                },
                {
                  "id": "unit",
                  "value": "short"
                },
                {
                  "id": "decimals",
                  "value": 2
                },
                {
                  "id": "custom.align",
                  "value": "auto"
                }
              ]
            }
          ]
        },
        "gridPos": {
          "h": 5,
          "w": 24,
          "x": 0,
          "y": 47
        },
        "id": 30,
        "options": {
          "footer": {
            "fields": "",
            "reducer": [
              "sum"
            ],
            "show": false
          },
          "frameIndex": 0,
          "showHeader": true
        },
        "pluginVersion": "9.0.2",
        "targets": [
          {
            "datasource": {
              "type": "prometheus",
              "uid": "prometheus"
            },
            "exemplar": true,
            "expr": "node_filesystem_size_bytes{instance=~'$instance',fstype=~\"ext.*|xfs\",mountpoint !~\".*pod.*\"}-0",
            "format": "table",
            "instant": true,
            "interval": "",
            "legendFormat": "总量",
            "refId": "A"
          },
          {
            "datasource": {
              "type": "prometheus",
              "uid": "prometheus"
            },
            "exemplar": true,
            "expr": "node_filesystem_avail_bytes {instance=~'$instance',fstype=~\"ext.*|xfs\",mountpoint !~\".*pod.*\"}-0",
            "format": "table",
            "hide": false,
            "instant": true,
            "interval": "",
            "legendFormat": "",
            "refId": "B"
          },
          {
            "datasource": {
              "type": "prometheus",
              "uid": "prometheus"
            },
            "exemplar": true,
            "expr": "(node_filesystem_size_bytes{instance=~'$instance',fstype=~\"ext.*|xfs\",mountpoint !~\".*pod.*\"}-node_filesystem_free_bytes{instance=~'$instance',fstype=~\"ext.*|xfs\",mountpoint !~\".*pod.*\"}) *100/(node_filesystem_avail_bytes {instance=~'$instance',fstype=~\"ext.*|xfs\",mountpoint !~\".*pod.*\"}+(node_filesystem_size_bytes{instance=~'$instance',fstype=~\"ext.*|xfs\",mountpoint !~\".*pod.*\"}-node_filesystem_free_bytes{instance=~'$instance',fstype=~\"ext.*|xfs\",mountpoint !~\".*pod.*\"}))",
            "format": "table",
            "hide": false,
            "instant": true,
            "interval": "",
            "legendFormat": "",
            "refId": "C"
          }
        ],
        "title": "Disk Space Used ",
        "type": "table"
      }
    ],
    "refresh": "",
    "schemaVersion": 36,
    "style": "dark",
    "tags": [],
    "templating": {
      "list": [
        {
          "current": {
            "selected": false,
            "text": "Prometheus",
            "value": "Prometheus"
          },
          "hide": 0,
          "includeAll": false,
          "label": "Datasource",
          "multi": false,
          "name": "datasource",
          "options": [],
          "query": "prometheus",
          "queryValue": "",
          "refresh": 1,
          "regex": "",
          "skipUrlSync": false,
          "type": "datasource"
        },
        {
          "current": {
            "selected": false,
            "text": "node-exporter",
            "value": "node-exporter"
          },
          "datasource": {
            "type": "prometheus",
            "uid": "prometheus"
          },
          "definition": "label_values(node_uname_info, job)",
          "hide": 0,
          "includeAll": false,
          "label": "job",
          "multi": false,
          "name": "job",
          "options": [],
          "query": {
            "query": "label_values(node_uname_info, job)",
            "refId": "StandardVariableQuery"
          },
          "refresh": 1,
          "regex": "",
          "skipUrlSync": false,
          "sort": 0,
          "type": "query"
        },
        {
          "current": {
            "selected": false,
            "text": "aks-backendapp-29439550-vmss00000c",
            "value": "aks-backendapp-29439550-vmss00000c"
          },
          "datasource": {
            "uid": "$datasource"
          },
          "definition": "label_values(node_uname_info{job=\"$job\"}, instance)",
          "hide": 0,
          "includeAll": false,
          "label": "Hostname",
          "multi": false,
          "name": "instance",
          "options": [],
          "query": {
            "query": "label_values(node_uname_info{job=\"$job\"}, instance)",
            "refId": "StandardVariableQuery"
          },
          "refresh": 2,
          "regex": "",
          "skipUrlSync": false,
          "sort": 1,
          "tagValuesQuery": "",
          "tagsQuery": "",
          "type": "query",
          "useTags": false
        },
        {
          "current": {
            "selected": false,
            "text": "aks-backendapp-29439550-vmss00000C",
            "value": "aks-backendapp-29439550-vmss00000C"
          },
          "datasource": {
            "uid": "$datasource"
          },
          "definition": "label_values(node_uname_info, nodename)",
          "hide": 2,
          "includeAll": false,
          "label": "",
          "multi": false,
          "name": "hostname",
          "options": [],
          "query": {
            "query": "label_values(node_uname_info, nodename)",
            "refId": "StandardVariableQuery"
          },
          "refresh": 1,
          "regex": "",
          "skipUrlSync": false,
          "sort": 0,
          "tagValuesQuery": "",
          "tagsQuery": "",
          "type": "query",
          "useTags": false
        },
        {
          "current": {
            "selected": false,
            "text": "sda",
            "value": "sda"
          },
          "datasource": {
            "uid": "$datasource"
          },
          "definition": "label_values(node_disk_reads_completed_total, device)",
          "hide": 2,
          "includeAll": false,
          "label": "device",
          "multi": false,
          "name": "device",
          "options": [],
          "query": {
            "query": "label_values(node_disk_reads_completed_total, device)",
            "refId": "Prometheus-device-Variable-Query"
          },
          "refresh": 2,
          "regex": "",
          "skipUrlSync": false,
          "sort": 1,
          "tagValuesQuery": "",
          "tagsQuery": "",
          "type": "query",
          "useTags": false
        },
        {
          "current": {
            "selected": false,
            "text": "/dev/root",
            "value": "/dev/root"
          },
          "datasource": {
            "uid": "$datasource"
          },
          "definition": "label_values(node_filesystem_size_bytes, device)",
          "hide": 2,
          "includeAll": false,
          "multi": false,
          "name": "devices",
          "options": [],
          "query": {
            "query": "label_values(node_filesystem_size_bytes, device)",
            "refId": "StandardVariableQuery"
          },
          "refresh": 2,
          "regex": "",
          "skipUrlSync": false,
          "sort": 0,
          "tagValuesQuery": "",
          "tagsQuery": "",
          "type": "query",
          "useTags": false
        },
        {
          "current": {
            "isNone": true,
            "selected": false,
            "text": "None",
            "value": ""
          },
          "datasource": {
            "uid": "$datasource"
          },
          "definition": "",
          "hide": 2,
          "includeAll": false,
          "label": "maxmount",
          "multi": false,
          "name": "maxmount",
          "options": [],
          "query": {
            "query": "",
            "refId": "Prometheus-maxmount-Variable-Query"
          },
          "refresh": 2,
          "regex": "/.*\\\"(.*)\\\".*/",
          "skipUrlSync": false,
          "sort": 1,
          "tagValuesQuery": "",
          "tagsQuery": "",
          "type": "query",
          "useTags": false
        },
        {
          "current": {
            "selected": false,
            "text": "11",
            "value": "11"
          },
          "datasource": {
            "uid": "$datasource"
          },
          "definition": "query_result(count(node_uname_info{job=~\"$job\"}))",
          "hide": 2,
          "includeAll": false,
          "label": "total_servers",
          "multi": false,
          "name": "total",
          "options": [],
          "query": {
            "query": "query_result(count(node_uname_info{job=~\"$job\"}))",
            "refId": "Prometheus-total-Variable-Query"
          },
          "refresh": 1,
          "regex": "/{} (.*) .*/",
          "skipUrlSync": false,
          "sort": 0,
          "tagValuesQuery": "",
          "tagsQuery": "",
          "type": "query",
          "useTags": false
        },
        {
          "current": {
            "selected": false,
            "text": "eth0",
            "value": "eth0"
          },
          "datasource": {
            "uid": "$datasource"
          },
          "definition": "label_values(node_network_info{operstate=\"up\"}, device)",
          "hide": 2,
          "includeAll": false,
          "label": "network_interface",
          "multi": false,
          "name": "network_interface",
          "options": [],
          "query": {
            "query": "label_values(node_network_info{operstate=\"up\"}, device)",
            "refId": "Prometheus-network_interface-Variable-Query"
          },
          "refresh": 1,
          "regex": "",
          "skipUrlSync": false,
          "sort": 0,
          "tagValuesQuery": "",
          "tagsQuery": "",
          "type": "query",
          "useTags": false
        },
        {
          "auto": false,
          "auto_count": 30,
          "auto_min": "10s",
          "current": {
            "selected": false,
            "text": "2m",
            "value": "2m"
          },
          "hide": 0,
          "name": "rate_interval",
          "options": [
            {
              "selected": false,
              "text": "1m",
              "value": "1m"
            },
            {
              "selected": true,
              "text": "2m",
              "value": "2m"
            },
            {
              "selected": false,
              "text": "5m",
              "value": "5m"
            },
            {
              "selected": false,
              "text": "10m",
              "value": "10m"
            },
            {
              "selected": false,
              "text": "30m",
              "value": "30m"
            },
            {
              "selected": false,
              "text": "1h",
              "value": "1h"
            },
            {
              "selected": false,
              "text": "6h",
              "value": "6h"
            },
            {
              "selected": false,
              "text": "12h",
              "value": "12h"
            },
            {
              "selected": false,
              "text": "1d",
              "value": "1d"
            },
            {
              "selected": false,
              "text": "7d",
              "value": "7d"
            },
            {
              "selected": false,
              "text": "14d",
              "value": "14d"
            },
            {
              "selected": false,
              "text": "30d",
              "value": "30d"
            }
          ],
          "query": "1m,2m,5m,10m,30m,1h,6h,12h,1d,7d,14d,30d",
          "queryValue": "",
          "refresh": 2,
          "skipUrlSync": false,
          "type": "interval"
        }
      ]
    },
    "time": {
      "from": "now-30m",
      "to": "now"
    },
    "timepicker": {
      "refresh_intervals": [
        "10s",
        "30s",
        "1m",
        "5m",
        "15m",
        "30m",
        "1h",
        "2h",
        "1d"
      ]
    },
    "timezone": "",
    "title": "Opstree/Node Exporter",
    "uid": "rrs",
    "version": 11,
    "weekStart": ""
  }